simulator/casras_tool/saved/session_ntsc_1.18.vcd
$version Generated by VerilatedVcd $end
$date Wed Feb 14 22:15:28 2024
 $end
$timescale   1ns $end

 $scope module TOP $end
  $var wire  1 a clk_cc $end
  $var wire  1 b clk_dc $end
  $var wire  1 c clk_phi $end
  $var wire  1 A ras_cc_p $end
  $var wire  1 B ras_cc_n $end
  $var wire  1 C cas_cc_p $end
  $var wire  1 D cas_cc_n $end
  $var wire  1 G ras_dc_p $end
  $var wire  1 H cas_dc_p $end
  $var wire  1 I ras_dc_n $end
  $var wire  1 J cas_dc_n $end
  $var wire  1 E cas $end
  $var wire  1 F ras $end
 $upscope $end
$enddefinitions $end


#0
1c
1a
1b
0A
0B
0C
0D
0E
0F
0G
0H
0I
0J
#1
1c
1a
1b
0A
0B
0C
0D
0E
0F
0G
0H
0I
0J
#2
1c
1a
1b
0A
0B
0C
0D
0E
0F
0G
0H
0I
0J
#3
1c
1a
1b
0A
0B
0C
0D
0E
0F
0G
0H
0I
0J
#4
1c
1a
1b
0A
0B
0C
0D
0E
0F
0G
0H
0I
0J
#5
1c
1a
1b
0A
0B
0C
0D
0E
0F
0G
0H
0I
0J
#6
1c
1a
1b
0A
0B
0C
0D
0E
0F
0G
0H
0I
0J
#7
1c
1a
1b
0A
0B
0C
0D
0E
0F
0G
0H
0I
0J
#8
1c
1a
1b
0A
0B
0C
0D
0E
0F
0G
0H
0I
0J
#9
1c
1a
1b
0A
0B
0C
0D
0E
0F
0G
0H
0I
0J
#10
1c
1a
1b
0A
0B
0C
0D
0E
0F
0G
0H
0I
0J
#11
1c
1a
1b
0A
0B
0C
0D
0E
0F
0G
0H
0I
0J
#12
1c
1a
1b
0A
0B
0C
0D
0E
0F
0G
0H
0I
0J
#13
1c
1a
1b
0A
0B
0C
0D
0E
0F
0G
0H
0I
0J
#14
1c
1a
1b
0A
0B
0C
0D
0E
0F
0G
0H
0I
0J
#15
1c
1a
1b
0A
0B
0C
0D
0E
0F
0G
0H
0I
0J
#16
1c
1a
1b
0A
0B
0C
0D
0E
0F
0G
0H
0I
0J
#17
1c
1a
1b
0A
0B
0C
0D
0E
0F
0G
0H
0I
0J
#18
1c
1a
1b
0A
0B
0C
0D
0E
0F
0G
0H
0I
0J
#19
1c
1a
1b
0A
0B
0C
0D
0E
0F
0G
0H
0I
0J
#20
1c
1a
1b
0A
0B
0C
0D
0E
0F
0G
0H
0I
0J
#21
1c
1a
1b
0A
0B
0C
0D
0E
0F
0G
0H
0I
0J
#22
1c
1a
1b
0A
0B
0C
0D
0E
0F
0G
0H
0I
0J
#23
1c
1a
1b
0A
0B
0C
0D
0E
0F
0G
0H
0I
0J
#24
1c
1a
1b
0A
0B
0C
0D
0E
0F
0G
0H
0I
0J
#25
1c
1a
1b
0A
0B
0C
0D
0E
0F
0G
0H
0I
0J
#26
1c
1a
1b
0A
0B
0C
0D
0E
0F
0G
0H
0I
0J
#27
1c
1a
1b
0A
0B
0C
0D
0E
0F
0G
0H
0I
0J
#28
1c
1a
1b
0A
0B
0C
0D
0E
0F
0G
0H
0I
0J
#29
1c
1a
1b
0A
0B
0C
0D
0E
0F
0G
0H
0I
0J
#30
1c
1a
1b
0A
0B
0C
0D
0E
0F
0G
0H
0I
0J
#31
1c
1a
1b
0A
0B
0C
0D
0E
0F
0G
0H
0I
0J
#32
1c
0a
1b
0A
0B
0C
0D
0E
0F
0G
0H
0I
0J
#33
1c
0a
1b
0A
0B
0C
0D
0E
0F
0G
0H
0I
0J
#34
1c
0a
1b
0A
0B
0C
0D
0E
0F
0G
0H
0I
0J
#35
1c
0a
1b
0A
0B
0C
0D
0E
0F
0G
0H
0I
0J
#36
1c
0a
1b
0A
0B
0C
0D
0E
0F
0G
0H
0I
0J
#37
1c
0a
1b
0A
0B
0C
0D
0E
0F
0G
0H
0I
0J
#38
1c
0a
1b
0A
0B
0C
0D
0E
0F
0G
0H
0I
0J
#39
1c
0a
1b
0A
0B
0C
0D
0E
0F
0G
0H
0I
0J
#40
1c
0a
1b
0A
0B
0C
0D
0E
0F
0G
0H
0I
0J
#41
1c
0a
1b
0A
0B
0C
0D
0E
0F
0G
0H
0I
0J
#42
1c
0a
1b
0A
0B
0C
0D
0E
0F
0G
0H
0I
0J
#43
1c
0a
1b
0A
0B
0C
0D
0E
0F
0G
0H
0I
0J
#44
1c
0a
1b
0A
0B
0C
0D
0E
0F
0G
0H
0I
0J
#45
1c
0a
1b
0A
0B
0C
0D
0E
0F
0G
0H
0I
0J
#46
1c
0a
1b
0A
0B
0C
0D
0E
0F
0G
0H
0I
0J
#47
1c
0a
1b
0A
0B
0C
0D
0E
0F
0G
0H
0I
0J
#48
1c
0a
1b
0A
0B
0C
0D
0E
0F
0G
0H
0I
0J
#49
1c
0a
1b
0A
0B
0C
0D
0E
0F
0G
0H
0I
0J
#50
1c
0a
1b
0A
0B
0C
0D
0E
0F
0G
0H
0I
0J
#51
1c
0a
1b
0A
0B
0C
0D
0E
0F
0G
0H
0I
0J
#52
1c
0a
1b
0A
0B
0C
0D
0E
0F
0G
0H
0I
0J
#53
1c
0a
1b
0A
0B
0C
0D
0E
0F
0G
0H
0I
0J
#54
1c
0a
1b
0A
0B
0C
0D
0E
0F
0G
0H
0I
0J
#55
1c
0a
1b
0A
0B
0C
0D
0E
0F
0G
0H
0I
0J
#56
1c
0a
0b
0A
0B
0C
0D
0E
0F
0G
0H
0I
0J
#57
1c
0a
0b
0A
0B
0C
0D
0E
0F
0G
0H
0I
0J
#58
1c
0a
0b
0A
0B
0C
0D
0E
0F
0G
0H
0I
0J
#59
1c
0a
0b
0A
0B
0C
0D
0E
0F
0G
0H
0I
0J
#60
1c
0a
0b
0A
0B
0C
0D
0E
0F
0G
0H
0I
0J
#61
1c
0a
0b
0A
0B
0C
0D
0E
0F
0G
0H
0I
0J
#62
1c
0a
0b
0A
0B
0C
0D
0E
0F
0G
0H
0I
0J
#63
1c
0a
0b
0A
0B
0C
0D
0E
0F
0G
0H
0I
0J
#64
1c
1a
0b
0A
0B
0C
0D
0E
0F
0G
0H
0I
0J
#65
1c
1a
0b
0A
0B
0C
0D
0E
0F
0G
0H
0I
0J
#66
1c
1a
0b
0A
0B
0C
0D
0E
0F
0G
0H
0I
0J
#67
1c
1a
0b
0A
0B
0C
0D
0E
0F
0G
0H
0I
0J
#68
1c
1a
0b
0A
0B
0C
0D
0E
0F
0G
0H
0I
0J
#69
1c
1a
0b
0A
0B
0C
0D
0E
0F
0G
0H
0I
0J
#70
1c
1a
0b
0A
0B
0C
0D
0E
0F
0G
0H
0I
0J
#71
1c
1a
0b
0A
0B
0C
0D
0E
0F
0G
0H
0I
0J
#72
1c
1a
0b
0A
0B
0C
0D
0E
0F
0G
0H
0I
0J
#73
1c
1a
0b
0A
0B
0C
0D
0E
0F
0G
0H
0I
0J
#74
1c
1a
0b
0A
0B
0C
0D
0E
0F
0G
0H
0I
0J
#75
1c
1a
0b
0A
0B
0C
0D
0E
0F
0G
0H
0I
0J
#76
1c
1a
0b
0A
0B
0C
0D
0E
0F
0G
0H
0I
0J
#77
1c
1a
0b
0A
0B
0C
0D
0E
0F
0G
0H
0I
0J
#78
1c
1a
0b
0A
0B
0C
0D
0E
0F
0G
0H
0I
0J
#79
1c
1a
0b
0A
0B
0C
0D
0E
0F
0G
0H
0I
0J
#80
1c
1a
0b
0A
0B
0C
0D
0E
0F
0G
0H
0I
0J
#81
1c
1a
0b
0A
0B
0C
0D
0E
0F
0G
0H
0I
0J
#82
1c
1a
0b
0A
0B
0C
0D
0E
0F
0G
0H
0I
0J
#83
1c
1a
0b
0A
0B
0C
0D
0E
0F
0G
0H
0I
0J
#84
1c
1a
0b
0A
0B
0C
0D
0E
0F
0G
0H
0I
0J
#85
1c
1a
0b
0A
0B
0C
0D
0E
0F
0G
0H
0I
0J
#86
1c
1a
0b
0A
0B
0C
0D
0E
0F
0G
0H
0I
0J
#87
1c
1a
0b
0A
0B
0C
0D
0E
0F
0G
0H
0I
0J
#88
1c
1a
0b
0A
0B
0C
0D
0E
0F
0G
0H
0I
0J
#89
1c
1a
0b
0A
0B
0C
0D
0E
0F
0G
0H
0I
0J
#90
1c
1a
0b
0A
0B
0C
0D
0E
0F
0G
0H
0I
0J
#91
1c
1a
0b
0A
0B
0C
0D
0E
0F
0G
0H
0I
0J
#92
1c
1a
0b
0A
0B
0C
0D
0E
0F
0G
0H
0I
0J
#93
1c
1a
0b
0A
0B
0C
0D
0E
0F
0G
0H
0I
0J
#94
1c
1a
0b
0A
0B
0C
0D
0E
0F
0G
0H
0I
0J
#95
1c
1a
0b
0A
0B
0C
0D
0E
0F
0G
0H
0I
0J
#96
1c
0a
0b
0A
0B
0C
0D
0E
0F
0G
0H
0I
0J
#97
1c
0a
0b
0A
0B
0C
0D
0E
0F
0G
0H
0I
0J
#98
1c
0a
0b
0A
0B
0C
0D
0E
0F
0G
0H
0I
0J
#99
1c
0a
0b
0A
0B
0C
0D
0E
0F
0G
0H
0I
0J
#100
1c
0a
0b
0A
0B
0C
0D
0E
0F
0G
0H
0I
0J
#101
1c
0a
0b
0A
0B
0C
0D
0E
0F
0G
0H
0I
0J
#102
1c
0a
0b
0A
0B
0C
0D
0E
0F
0G
0H
0I
0J
#103
1c
0a
0b
0A
0B
0C
0D
0E
0F
0G
0H
0I
0J
#104
1c
0a
0b
0A
0B
0C
0D
0E
0F
0G
0H
0I
0J
#105
1c
0a
0b
0A
0B
0C
0D
0E
0F
0G
0H
0I
0J
#106
1c
0a
0b
0A
0B
0C
0D
0E
0F
0G
0H
0I
0J
#107
1c
0a
0b
0A
0B
0C
0D
0E
0F
0G
0H
0I
0J
#108
1c
0a
0b
0A
0B
0C
0D
0E
0F
0G
0H
0I
0J
#109
1c
0a
0b
0A
0B
0C
0D
0E
0F
0G
0H
0I
0J
#110
1c
0a
0b
0A
0B
0C
0D
0E
0F
0G
0H
0I
0J
#111
1c
0a
0b
0A
0B
0C
0D
0E
0F
0G
0H
0I
0J
#112
1c
0a
1b
0A
0B
0C
0D
1E
0F
0G
1H
0I
0J
#113
1c
0a
1b
0A
0B
0C
0D
1E
0F
0G
1H
0I
0J
#114
1c
0a
1b
0A
0B
0C
0D
1E
0F
0G
1H
0I
0J
#115
1c
0a
1b
0A
0B
0C
0D
1E
0F
0G
1H
0I
0J
#116
1c
0a
1b
0A
0B
0C
0D
1E
0F
0G
1H
0I
0J
#117
1c
0a
1b
0A
0B
0C
0D
1E
0F
0G
1H
0I
0J
#118
1c
0a
1b
0A
0B
0C
0D
1E
0F
0G
1H
0I
0J
#119
1c
0a
1b
0A
0B
0C
0D
1E
0F
0G
1H
0I
0J
#120
1c
0a
1b
0A
0B
0C
0D
1E
0F
0G
1H
0I
0J
#121
1c
0a
1b
0A
0B
0C
0D
1E
0F
0G
1H
0I
0J
#122
1c
0a
1b
0A
0B
0C
0D
1E
0F
0G
1H
0I
0J
#123
1c
0a
1b
0A
0B
0C
0D
1E
0F
0G
1H
0I
0J
#124
1c
0a
1b
0A
0B
0C
0D
1E
0F
0G
1H
0I
0J
#125
1c
0a
1b
0A
0B
0C
0D
1E
0F
0G
1H
0I
0J
#126
1c
0a
1b
0A
0B
0C
0D
1E
0F
0G
1H
0I
0J
#127
1c
0a
1b
0A
0B
0C
0D
1E
0F
0G
1H
0I
0J
#128
1c
1a
1b
1A
0B
0C
0D
1E
1F
0G
1H
0I
0J
#129
1c
1a
1b
1A
0B
0C
0D
1E
1F
0G
1H
0I
0J
#130
1c
1a
1b
1A
0B
0C
0D
1E
1F
0G
1H
0I
0J
#131
1c
1a
1b
1A
0B
0C
0D
1E
1F
0G
1H
0I
0J
#132
1c
1a
1b
1A
0B
0C
0D
1E
1F
0G
1H
0I
0J
#133
1c
1a
1b
1A
0B
0C
0D
1E
1F
0G
1H
0I
0J
#134
1c
1a
1b
1A
0B
0C
0D
1E
1F
0G
1H
0I
0J
#135
1c
1a
1b
1A
0B
0C
0D
1E
1F
0G
1H
0I
0J
#136
1c
1a
1b
1A
0B
0C
0D
1E
1F
0G
1H
0I
0J
#137
1c
1a
1b
1A
0B
0C
0D
1E
1F
0G
1H
0I
0J
#138
1c
1a
1b
1A
0B
0C
0D
1E
1F
0G
1H
0I
0J
#139
1c
1a
1b
1A
0B
0C
0D
1E
1F
0G
1H
0I
0J
#140
1c
1a
1b
1A
0B
0C
0D
1E
1F
0G
1H
0I
0J
#141
1c
1a
1b
1A
0B
0C
0D
1E
1F
0G
1H
0I
0J
#142
1c
1a
1b
1A
0B
0C
0D
1E
1F
0G
1H
0I
0J
#143
1c
1a
1b
1A
0B
0C
0D
1E
1F
0G
1H
0I
0J
#144
1c
1a
1b
1A
0B
0C
0D
1E
1F
0G
1H
0I
0J
#145
1c
1a
1b
1A
0B
0C
0D
1E
1F
0G
1H
0I
0J
#146
1c
1a
1b
1A
0B
0C
0D
1E
1F
0G
1H
0I
0J
#147
1c
1a
1b
1A
0B
0C
0D
1E
1F
0G
1H
0I
0J
#148
1c
1a
1b
1A
0B
0C
0D
1E
1F
0G
1H
0I
0J
#149
1c
1a
1b
1A
0B
0C
0D
1E
1F
0G
1H
0I
0J
#150
1c
1a
1b
1A
0B
0C
0D
1E
1F
0G
1H
0I
0J
#151
1c
1a
1b
1A
0B
0C
0D
1E
1F
0G
1H
0I
0J
#152
1c
1a
1b
1A
0B
0C
0D
1E
1F
0G
1H
0I
0J
#153
1c
1a
1b
1A
0B
0C
0D
1E
1F
0G
1H
0I
0J
#154
1c
1a
1b
1A
0B
0C
0D
1E
1F
0G
1H
0I
0J
#155
1c
1a
1b
1A
0B
0C
0D
1E
1F
0G
1H
0I
0J
#156
1c
1a
1b
1A
0B
0C
0D
1E
1F
0G
1H
0I
0J
#157
1c
1a
1b
1A
0B
0C
0D
1E
1F
0G
1H
0I
0J
#158
1c
1a
1b
1A
0B
0C
0D
1E
1F
0G
1H
0I
0J
#159
1c
1a
1b
1A
0B
0C
0D
1E
1F
0G
1H
0I
0J
#160
1c
0a
1b
1A
0B
0C
0D
1E
1F
0G
1H
0I
0J
#161
1c
0a
1b
1A
0B
0C
0D
1E
1F
0G
1H
0I
0J
#162
1c
0a
1b
1A
0B
0C
0D
1E
1F
0G
1H
0I
0J
#163
1c
0a
1b
1A
0B
0C
0D
1E
1F
0G
1H
0I
0J
#164
1c
0a
1b
1A
0B
0C
0D
1E
1F
0G
1H
0I
0J
#165
1c
0a
1b
1A
0B
0C
0D
1E
1F
0G
1H
0I
0J
#166
1c
0a
1b
1A
0B
0C
0D
1E
1F
0G
1H
0I
0J
#167
1c
0a
1b
1A
0B
0C
0D
1E
1F
0G
1H
0I
0J
#168
1c
0a
0b
1A
0B
0C
0D
1E
1F
0G
1H
0I
1J
#169
1c
0a
0b
1A
0B
0C
0D
1E
1F
0G
1H
0I
1J
#170
1c
0a
0b
1A
0B
0C
0D
1E
1F
0G
1H
0I
1J
#171
1c
0a
0b
1A
0B
0C
0D
1E
1F
0G
1H
0I
1J
#172
1c
0a
0b
1A
0B
0C
0D
1E
1F
0G
1H
0I
1J
#173
1c
0a
0b
1A
0B
0C
0D
1E
1F
0G
1H
0I
1J
#174
1c
0a
0b
1A
0B
0C
0D
1E
1F
0G
1H
0I
1J
#175
1c
0a
0b
1A
0B
0C
0D
1E
1F
0G
1H
0I
1J
#176
1c
0a
0b
1A
0B
0C
0D
1E
1F
0G
1H
0I
1J
#177
1c
0a
0b
1A
0B
0C
0D
1E
1F
0G
1H
0I
1J
#178
1c
0a
0b
1A
0B
0C
0D
1E
1F
0G
1H
0I
1J
#179
1c
0a
0b
1A
0B
0C
0D
1E
1F
0G
1H
0I
1J
#180
1c
0a
0b
1A
0B
0C
0D
1E
1F
0G
1H
0I
1J
#181
1c
0a
0b
1A
0B
0C
0D
1E
1F
0G
1H
0I
1J
#182
1c
0a
0b
1A
0B
0C
0D
1E
1F
0G
1H
0I
1J
#183
1c
0a
0b
1A
0B
0C
0D
1E
1F
0G
1H
0I
1J
#184
1c
0a
0b
1A
0B
0C
0D
1E
1F
0G
1H
0I
1J
#185
1c
0a
0b
1A
0B
0C
0D
1E
1F
0G
1H
0I
1J
#186
1c
0a
0b
1A
0B
0C
0D
1E
1F
0G
1H
0I
1J
#187
1c
0a
0b
1A
0B
0C
0D
1E
1F
0G
1H
0I
1J
#188
1c
0a
0b
1A
0B
0C
0D
1E
1F
0G
1H
0I
1J
#189
1c
0a
0b
1A
0B
0C
0D
1E
1F
0G
1H
0I
1J
#190
1c
0a
0b
1A
0B
0C
0D
1E
1F
0G
1H
0I
1J
#191
1c
0a
0b
1A
0B
0C
0D
1E
1F
0G
1H
0I
1J
#192
1c
1a
0b
1A
0B
0C
0D
1E
1F
0G
1H
0I
1J
#193
1c
1a
0b
1A
0B
0C
0D
1E
1F
0G
1H
0I
1J
#194
1c
1a
0b
1A
0B
0C
0D
1E
1F
0G
1H
0I
1J
#195
1c
1a
0b
1A
0B
0C
0D
1E
1F
0G
1H
0I
1J
#196
1c
1a
0b
1A
0B
0C
0D
1E
1F
0G
1H
0I
1J
#197
1c
1a
0b
1A
0B
0C
0D
1E
1F
0G
1H
0I
1J
#198
1c
1a
0b
1A
0B
0C
0D
1E
1F
0G
1H
0I
1J
#199
1c
1a
0b
1A
0B
0C
0D
1E
1F
0G
1H
0I
1J
#200
1c
1a
0b
1A
0B
0C
0D
1E
1F
0G
1H
0I
1J
#201
1c
1a
0b
1A
0B
0C
0D
1E
1F
0G
1H
0I
1J
#202
1c
1a
0b
1A
0B
0C
0D
1E
1F
0G
1H
0I
1J
#203
1c
1a
0b
1A
0B
0C
0D
1E
1F
0G
1H
0I
1J
#204
1c
1a
0b
1A
0B
0C
0D
1E
1F
0G
1H
0I
1J
#205
1c
1a
0b
1A
0B
0C
0D
1E
1F
0G
1H
0I
1J
#206
1c
1a
0b
1A
0B
0C
0D
1E
1F
0G
1H
0I
1J
#207
1c
1a
0b
1A
0B
0C
0D
1E
1F
0G
1H
0I
1J
#208
1c
1a
0b
1A
0B
0C
0D
1E
1F
0G
1H
0I
1J
#209
1c
1a
0b
1A
0B
0C
0D
1E
1F
0G
1H
0I
1J
#210
1c
1a
0b
1A
0B
0C
0D
1E
1F
0G
1H
0I
1J
#211
1c
1a
0b
1A
0B
0C
0D
1E
1F
0G
1H
0I
1J
#212
1c
1a
0b
1A
0B
0C
0D
1E
1F
0G
1H
0I
1J
#213
1c
1a
0b
1A
0B
0C
0D
1E
1F
0G
1H
0I
1J
#214
1c
1a
0b
1A
0B
0C
0D
1E
1F
0G
1H
0I
1J
#215
1c
1a
0b
1A
0B
0C
0D
1E
1F
0G
1H
0I
1J
#216
1c
1a
0b
1A
0B
0C
0D
1E
1F
0G
1H
0I
1J
#217
1c
1a
0b
1A
0B
0C
0D
1E
1F
0G
1H
0I
1J
#218
1c
1a
0b
1A
0B
0C
0D
1E
1F
0G
1H
0I
1J
#219
1c
1a
0b
1A
0B
0C
0D
1E
1F
0G
1H
0I
1J
#220
1c
1a
0b
1A
0B
0C
0D
1E
1F
0G
1H
0I
1J
#221
1c
1a
0b
1A
0B
0C
0D
1E
1F
0G
1H
0I
1J
#222
1c
1a
0b
1A
0B
0C
0D
1E
1F
0G
1H
0I
1J
#223
1c
1a
0b
1A
0B
0C
0D
1E
1F
0G
1H
0I
1J
#224
1c
0a
1b
1A
0B
0C
0D
1E
1F
1G
1H
0I
1J
#225
1c
0a
1b
1A
0B
0C
0D
1E
1F
1G
1H
0I
1J
#226
1c
0a
1b
1A
0B
0C
0D
1E
1F
1G
1H
0I
1J
#227
1c
0a
1b
1A
0B
0C
0D
1E
1F
1G
1H
0I
1J
#228
1c
0a
1b
1A
0B
0C
0D
1E
1F
1G
1H
0I
1J
#229
1c
0a
1b
1A
0B
0C
0D
1E
1F
1G
1H
0I
1J
#230
1c
0a
1b
1A
0B
0C
0D
1E
1F
1G
1H
0I
1J
#231
1c
0a
1b
1A
0B
0C
0D
1E
1F
1G
1H
0I
1J
#232
1c
0a
1b
1A
0B
0C
0D
1E
1F
1G
1H
0I
1J
#233
1c
0a
1b
1A
0B
0C
0D
1E
1F
1G
1H
0I
1J
#234
1c
0a
1b
1A
0B
0C
0D
1E
1F
1G
1H
0I
1J
#235
1c
0a
1b
1A
0B
0C
0D
1E
1F
1G
1H
0I
1J
#236
1c
0a
1b
1A
0B
0C
0D
1E
1F
1G
1H
0I
1J
#237
1c
0a
1b
1A
0B
0C
0D
1E
1F
1G
1H
0I
1J
#238
1c
0a
1b
1A
0B
0C
0D
1E
1F
1G
1H
0I
1J
#239
1c
0a
1b
1A
0B
0C
0D
1E
1F
1G
1H
0I
1J
#240
1c
0a
1b
1A
0B
0C
0D
1E
1F
1G
1H
0I
1J
#241
1c
0a
1b
1A
0B
0C
0D
1E
1F
1G
1H
0I
1J
#242
1c
0a
1b
1A
0B
0C
0D
1E
1F
1G
1H
0I
1J
#243
1c
0a
1b
1A
0B
0C
0D
1E
1F
1G
1H
0I
1J
#244
1c
0a
1b
1A
0B
0C
0D
1E
1F
1G
1H
0I
1J
#245
1c
0a
1b
1A
0B
0C
0D
1E
1F
1G
1H
0I
1J
#246
1c
0a
1b
1A
0B
0C
0D
1E
1F
1G
1H
0I
1J
#247
1c
0a
1b
1A
0B
0C
0D
1E
1F
1G
1H
0I
1J
#248
1c
0a
1b
1A
0B
0C
0D
1E
1F
1G
1H
0I
1J
#249
1c
0a
1b
1A
0B
0C
0D
1E
1F
1G
1H
0I
1J
#250
1c
0a
1b
1A
0B
0C
0D
1E
1F
1G
1H
0I
1J
#251
1c
0a
1b
1A
0B
0C
0D
1E
1F
1G
1H
0I
1J
#252
1c
0a
1b
1A
0B
0C
0D
1E
1F
1G
1H
0I
1J
#253
1c
0a
1b
1A
0B
0C
0D
1E
1F
1G
1H
0I
1J
#254
1c
0a
1b
1A
0B
0C
0D
1E
1F
1G
1H
0I
1J
#255
1c
0a
1b
1A
0B
0C
0D
1E
1F
1G
1H
0I
1J
#256
1c
1a
1b
1A
0B
0C
0D
1E
1F
1G
1H
0I
1J
#257
1c
1a
1b
1A
0B
0C
0D
1E
1F
1G
1H
0I
1J
#258
1c
1a
1b
1A
0B
0C
0D
1E
1F
1G
1H
0I
1J
#259
1c
1a
1b
1A
0B
0C
0D
1E
1F
1G
1H
0I
1J
#260
1c
1a
1b
1A
0B
0C
0D
1E
1F
1G
1H
0I
1J
#261
1c
1a
1b
1A
0B
0C
0D
1E
1F
1G
1H
0I
1J
#262
1c
1a
1b
1A
0B
0C
0D
1E
1F
1G
1H
0I
1J
#263
1c
1a
1b
1A
0B
0C
0D
1E
1F
1G
1H
0I
1J
#264
1c
1a
1b
1A
0B
0C
0D
1E
1F
1G
1H
0I
1J
#265
1c
1a
1b
1A
0B
0C
0D
1E
1F
1G
1H
0I
1J
#266
1c
1a
1b
1A
0B
0C
0D
1E
1F
1G
1H
0I
1J
#267
1c
1a
1b
1A
0B
0C
0D
1E
1F
1G
1H
0I
1J
#268
1c
1a
1b
1A
0B
0C
0D
1E
1F
1G
1H
0I
1J
#269
1c
1a
1b
1A
0B
0C
0D
1E
1F
1G
1H
0I
1J
#270
1c
1a
1b
1A
0B
0C
0D
1E
1F
1G
1H
0I
1J
#271
1c
1a
1b
1A
0B
0C
0D
1E
1F
1G
1H
0I
1J
#272
1c
1a
1b
1A
0B
0C
0D
1E
1F
1G
1H
0I
1J
#273
1c
1a
1b
1A
0B
0C
0D
1E
1F
1G
1H
0I
1J
#274
1c
1a
1b
1A
0B
0C
0D
1E
1F
1G
1H
0I
1J
#275
1c
1a
1b
1A
0B
0C
0D
1E
1F
1G
1H
0I
1J
#276
1c
1a
1b
1A
0B
0C
0D
1E
1F
1G
1H
0I
1J
#277
1c
1a
1b
1A
0B
0C
0D
1E
1F
1G
1H
0I
1J
#278
1c
1a
1b
1A
0B
0C
0D
1E
1F
1G
1H
0I
1J
#279
1c
1a
1b
1A
0B
0C
0D
1E
1F
1G
1H
0I
1J
#280
1c
1a
0b
1A
0B
0C
0D
1E
1F
1G
1H
0I
1J
#281
1c
1a
0b
1A
0B
0C
0D
1E
1F
1G
1H
0I
1J
#282
1c
1a
0b
1A
0B
0C
0D
1E
1F
1G
1H
0I
1J
#283
1c
1a
0b
1A
0B
0C
0D
1E
1F
1G
1H
0I
1J
#284
1c
1a
0b
1A
0B
0C
0D
1E
1F
1G
1H
0I
1J
#285
1c
1a
0b
1A
0B
0C
0D
1E
1F
1G
1H
0I
1J
#286
1c
1a
0b
1A
0B
0C
0D
1E
1F
1G
1H
0I
1J
#287
1c
1a
0b
1A
0B
0C
0D
1E
1F
1G
1H
0I
1J
#288
1c
0a
0b
1A
0B
0C
0D
1E
1F
1G
1H
0I
1J
#289
1c
0a
0b
1A
0B
0C
0D
1E
1F
1G
1H
0I
1J
#290
1c
0a
0b
1A
0B
0C
0D
1E
1F
1G
1H
0I
1J
#291
1c
0a
0b
1A
0B
0C
0D
1E
1F
1G
1H
0I
1J
#292
1c
0a
0b
1A
0B
0C
0D
1E
1F
1G
1H
0I
1J
#293
1c
0a
0b
1A
0B
0C
0D
1E
1F
1G
1H
0I
1J
#294
1c
0a
0b
1A
0B
0C
0D
1E
1F
1G
1H
0I
1J
#295
1c
0a
0b
1A
0B
0C
0D
1E
1F
1G
1H
0I
1J
#296
1c
0a
0b
1A
0B
0C
0D
1E
1F
1G
1H
0I
1J
#297
1c
0a
0b
1A
0B
0C
0D
1E
1F
1G
1H
0I
1J
#298
1c
0a
0b
1A
0B
0C
0D
1E
1F
1G
1H
0I
1J
#299
1c
0a
0b
1A
0B
0C
0D
1E
1F
1G
1H
0I
1J
#300
1c
0a
0b
1A
0B
0C
0D
1E
1F
1G
1H
0I
1J
#301
1c
0a
0b
1A
0B
0C
0D
1E
1F
1G
1H
0I
1J
#302
1c
0a
0b
1A
0B
0C
0D
1E
1F
1G
1H
0I
1J
#303
1c
0a
0b
1A
0B
0C
0D
1E
1F
1G
1H
0I
1J
#304
1c
0a
0b
1A
0B
0C
0D
1E
1F
1G
1H
0I
1J
#305
1c
0a
0b
1A
0B
0C
0D
1E
1F
1G
1H
0I
1J
#306
1c
0a
0b
1A
0B
0C
0D
1E
1F
1G
1H
0I
1J
#307
1c
0a
0b
1A
0B
0C
0D
1E
1F
1G
1H
0I
1J
#308
1c
0a
0b
1A
0B
0C
0D
1E
1F
1G
1H
0I
1J
#309
1c
0a
0b
1A
0B
0C
0D
1E
1F
1G
1H
0I
1J
#310
1c
0a
0b
1A
0B
0C
0D
1E
1F
1G
1H
0I
1J
#311
1c
0a
0b
1A
0B
0C
0D
1E
1F
1G
1H
0I
1J
#312
1c
0a
0b
1A
0B
0C
0D
1E
1F
1G
1H
0I
1J
#313
1c
0a
0b
1A
0B
0C
0D
1E
1F
1G
1H
0I
1J
#314
1c
0a
0b
1A
0B
0C
0D
1E
1F
1G
1H
0I
1J
#315
1c
0a
0b
1A
0B
0C
0D
1E
1F
1G
1H
0I
1J
#316
1c
0a
0b
1A
0B
0C
0D
1E
1F
1G
1H
0I
1J
#317
1c
0a
0b
1A
0B
0C
0D
1E
1F
1G
1H
0I
1J
#318
1c
0a
0b
1A
0B
0C
0D
1E
1F
1G
1H
0I
1J
#319
1c
0a
0b
1A
0B
0C
0D
1E
1F
1G
1H
0I
1J
#320
1c
1a
0b
0A
0B
0C
0D
1E
1F
1G
1H
0I
1J
#321
1c
1a
0b
0A
0B
0C
0D
1E
1F
1G
1H
0I
1J
#322
1c
1a
0b
0A
0B
0C
0D
1E
1F
1G
1H
0I
1J
#323
1c
1a
0b
0A
0B
0C
0D
1E
1F
1G
1H
0I
1J
#324
1c
1a
0b
0A
0B
0C
0D
1E
1F
1G
1H
0I
1J
#325
1c
1a
0b
0A
0B
0C
0D
1E
1F
1G
1H
0I
1J
#326
1c
1a
0b
0A
0B
0C
0D
1E
1F
1G
1H
0I
1J
#327
1c
1a
0b
0A
0B
0C
0D
1E
1F
1G
1H
0I
1J
#328
1c
1a
0b
0A
0B
0C
0D
1E
1F
1G
1H
0I
1J
#329
1c
1a
0b
0A
0B
0C
0D
1E
1F
1G
1H
0I
1J
#330
1c
1a
0b
0A
0B
0C
0D
1E
1F
1G
1H
0I
1J
#331
1c
1a
0b
0A
0B
0C
0D
1E
1F
1G
1H
0I
1J
#332
1c
1a
0b
0A
0B
0C
0D
1E
1F
1G
1H
0I
1J
#333
1c
1a
0b
0A
0B
0C
0D
1E
1F
1G
1H
0I
1J
#334
1c
1a
0b
0A
0B
0C
0D
1E
1F
1G
1H
0I
1J
#335
1c
1a
0b
0A
0B
0C
0D
1E
1F
1G
1H
0I
1J
#336
1c
1a
1b
0A
0B
0C
0D
1E
1F
1G
1H
0I
1J
#337
1c
1a
1b
0A
0B
0C
0D
1E
1F
1G
1H
0I
1J
#338
1c
1a
1b
0A
0B
0C
0D
1E
1F
1G
1H
0I
1J
#339
1c
1a
1b
0A
0B
0C
0D
1E
1F
1G
1H
0I
1J
#340
1c
1a
1b
0A
0B
0C
0D
1E
1F
1G
1H
0I
1J
#341
1c
1a
1b
0A
0B
0C
0D
1E
1F
1G
1H
0I
1J
#342
1c
1a
1b
0A
0B
0C
0D
1E
1F
1G
1H
0I
1J
#343
1c
1a
1b
0A
0B
0C
0D
1E
1F
1G
1H
0I
1J
#344
1c
1a
1b
0A
0B
0C
0D
1E
1F
1G
1H
0I
1J
#345
1c
1a
1b
0A
0B
0C
0D
1E
1F
1G
1H
0I
1J
#346
1c
1a
1b
0A
0B
0C
0D
1E
1F
1G
1H
0I
1J
#347
1c
1a
1b
0A
0B
0C
0D
1E
1F
1G
1H
0I
1J
#348
1c
1a
1b
0A
0B
0C
0D
1E
1F
1G
1H
0I
1J
